// Jest Snapshot v1, https://goo.gl/fbAQLP

exports[`Header Component should render correctly 1`] = `
<nav
  className="navbar navbar-expand-md navbar-dark fixed-top bg-dark"
>
  <button
    aria-controls="navbarSupportedContent"
    aria-expanded="false"
    aria-label="Toggle navigation"
    className="navbar-toggler"
    data-target="#navbarSupportedContent"
    data-toggle="collapse"
    type="button"
  >
    <span
      className="navbar-toggler-icon"
    />
  </button>
  <div
    className="collapse navbar-collapse"
    id="navbarSupportedContent"
  >
    <div
      className="navbar-nav mr-auto"
    >
      <a
        className="navbar-brand"
        href="#"
        onClick={[Function]}
      >
        Fiction All Store
      </a>
    </div>
    <form
      className="form-inline my-2 my-lg-0"
    >
      <input
        aria-label="Search"
        className="form-control mr-sm-2"
        placeholder="Search"
        type="search"
      />
      <button
        className="btn btn-outline-success my-2 my-sm-0"
        type="submit"
      >
        Search
      </button>
    </form>
  </div>
</nav>
`;
