// Jest Snapshot v1, https://goo.gl/fbAQLP

exports[`Payment Component should render correctly 1`] = `
<form
  className="payment-form"
  noValidate={true}
>
  <div
    className="form-container"
  >
    <div
      className="form-row"
    >
      <div
        className="form-group col-md-8"
      >
        <label
          className="col-form-label col-form-label-sm text-muted"
        >
          Card Number
          <div
            className="input-group"
          >
            <div
              className="input-group-prepend card-icon"
            >
              <div
                className="input-group-text"
              >
                <i
                  className="fas fa-credit-card"
                />
              </div>
            </div>
            <input
              className="form-control form-control-lg card-number"
              pattern="^([0-9]{4}\\\\s){3}[0-9]{4}$"
              placeholder="xxxx xxxx xxxx xxxx"
              required={true}
              type="text"
            />
            <div
              className="input-group-append visa-icon"
            >
              <div
                className="input-group-text"
              >
                <i
                  className="fab fa-cc-visa"
                />
              </div>
            </div>
          </div>
        </label>
      </div>
      <div
        className="form-group col"
      >
        <label
          className="col-form-label col-form-label-sm text-muted"
        >
          CCV
          <div
            className="input-group"
          >
            <input
              className="form-control form-control-lg card-ccv"
              pattern="^\\\\d\\\\d\\\\d$"
              placeholder="xxx"
              required={true}
              type="text"
            />
            <div
              className="input-group-append card-icon"
            >
              <div
                className="input-group-text"
              >
                <i
                  className="fas fa-credit-card"
                />
              </div>
            </div>
          </div>
        </label>
      </div>
    </div>
    <div
      className="form-row"
    >
      <div
        className="form-group col-md-8"
      >
        <label
          className="col-form-label col-form-label-sm text-muted"
        >
          Name on card
          <input
            className="form-control form-control-lg card-name"
            required={true}
            type="text"
          />
        </label>
      </div>
      <div
        className="form-group col"
      >
        <label
          className="col-form-label col-form-label-sm text-muted"
        >
          MM
          <input
            className="form-control form-control-lg card-mm"
            pattern="^\\\\d\\\\d$"
            placeholder="xx"
            required={true}
            type="text"
          />
        </label>
      </div>
      <div
        className="form-group col"
      >
        <label
          className="col-form-label col-form-label-sm text-muted"
        >
          YY
          <input
            className="form-control form-control-lg card-yy"
            pattern="^\\\\d\\\\d$"
            placeholder="xx"
            required={true}
            type="text"
          />
        </label>
      </div>
    </div>
  </div>
  <div
    className="SplitPane-btn-container"
  >
    <input
      className="btn SplitPane-btn"
      defaultValue="Place Order"
      onClick={[Function]}
      type="button"
    />
  </div>
</form>
`;
